^C:\USERS\ADM\SOURCE\REPOS\HOMEWORK17\DEBUG\HOMEWORK17.OBJ
C:\USERS\ADM\SOURCE\REPOS\HOMEWORK17\DEBUG\HOMEWORK17.EXE
C:\USERS\ADM\SOURCE\REPOS\HOMEWORK17\DEBUG\HOMEWORK17.ILK
C:\USERS\ADM\SOURCE\REPOS\HOMEWORK17\DEBUG\HOMEWORK17.PDB
